EESchema Schematic File Version 4
LIBS:esp-ring-cache
EELAYER 26 0
EELAYER END
$Descr A2 23386 16535
encoding utf-8
Sheet 1 1
Title "30 WS2812B Pixel LED Ring with buffer and esp8266"
Date "2017-06-04"
Rev ""
Comp ""
Comment1 "Author: Grzegorz Hetman"
Comment2 ""
Comment3 ""
Comment4 ""
$EndDescr
$Comp
L esp-ring-rescue:WS2812B-RESCUE-ring-esp-ring-rescue-esp-ring-rescue-esp-ring-rescue L6
U 1 1 56902CC8
P 3250 2200
F 0 "L6" H 3250 2200 60  0000 C CNN
F 1 "WS2812B" H 3250 2500 60  0000 C CNN
F 2 "NeoPixel:WS2812B" H 3250 2200 60  0001 C CNN
F 3 "" H 3250 2200 60  0000 C CNN
	1    3250 2200
	1    0    0    -1  
$EndComp
$Comp
L esp-ring-rescue:WS2812B-RESCUE-ring-esp-ring-rescue-esp-ring-rescue-esp-ring-rescue L1
U 1 1 56902CCF
P 3250 1200
F 0 "L1" H 3250 1200 60  0000 C CNN
F 1 "WS2812B" H 3250 1500 60  0000 C CNN
F 2 "NeoPixel:WS2812B" H 3250 1200 60  0001 C CNN
F 3 "" H 3250 1200 60  0000 C CNN
	1    3250 1200
	1    0    0    -1  
$EndComp
$Comp
L esp-ring-rescue:WS2812B-RESCUE-ring-esp-ring-rescue-esp-ring-rescue-esp-ring-rescue L2
U 1 1 56902CD6
P 4800 1200
F 0 "L2" H 4800 1200 60  0000 C CNN
F 1 "WS2812B" H 4800 1500 60  0000 C CNN
F 2 "NeoPixel:WS2812B" H 4800 1200 60  0001 C CNN
F 3 "" H 4800 1200 60  0000 C CNN
	1    4800 1200
	1    0    0    -1  
$EndComp
$Comp
L esp-ring-rescue:WS2812B-RESCUE-ring-esp-ring-rescue-esp-ring-rescue-esp-ring-rescue L3
U 1 1 56902CDD
P 6350 1200
F 0 "L3" H 6350 1200 60  0000 C CNN
F 1 "WS2812B" H 6350 1500 60  0000 C CNN
F 2 "NeoPixel:WS2812B" H 6350 1200 60  0001 C CNN
F 3 "" H 6350 1200 60  0000 C CNN
	1    6350 1200
	1    0    0    -1  
$EndComp
$Comp
L esp-ring-rescue:WS2812B-RESCUE-ring-esp-ring-rescue-esp-ring-rescue-esp-ring-rescue L4
U 1 1 56902CE4
P 7900 1200
F 0 "L4" H 7900 1200 60  0000 C CNN
F 1 "WS2812B" H 7900 1500 60  0000 C CNN
F 2 "NeoPixel:WS2812B" H 7900 1200 60  0001 C CNN
F 3 "" H 7900 1200 60  0000 C CNN
	1    7900 1200
	1    0    0    -1  
$EndComp
$Comp
L esp-ring-rescue:WS2812B-RESCUE-ring-esp-ring-rescue-esp-ring-rescue-esp-ring-rescue L5
U 1 1 56902CEB
P 9400 1200
F 0 "L5" H 9400 1200 60  0000 C CNN
F 1 "WS2812B" H 9400 1500 60  0000 C CNN
F 2 "NeoPixel:WS2812B" H 9400 1200 60  0001 C CNN
F 3 "" H 9400 1200 60  0000 C CNN
	1    9400 1200
	1    0    0    -1  
$EndComp
$Comp
L esp-ring-rescue:WS2812B-RESCUE-ring-esp-ring-rescue-esp-ring-rescue-esp-ring-rescue L7
U 1 1 56902CF2
P 4800 2200
F 0 "L7" H 4800 2200 60  0000 C CNN
F 1 "WS2812B" H 4800 2500 60  0000 C CNN
F 2 "NeoPixel:WS2812B" H 4800 2200 60  0001 C CNN
F 3 "" H 4800 2200 60  0000 C CNN
	1    4800 2200
	1    0    0    -1  
$EndComp
$Comp
L esp-ring-rescue:WS2812B-RESCUE-ring-esp-ring-rescue-esp-ring-rescue-esp-ring-rescue L8
U 1 1 56902CF9
P 6350 2200
F 0 "L8" H 6350 2200 60  0000 C CNN
F 1 "WS2812B" H 6350 2500 60  0000 C CNN
F 2 "NeoPixel:WS2812B" H 6350 2200 60  0001 C CNN
F 3 "" H 6350 2200 60  0000 C CNN
	1    6350 2200
	1    0    0    -1  
$EndComp
$Comp
L esp-ring-rescue:WS2812B-RESCUE-ring-esp-ring-rescue-esp-ring-rescue-esp-ring-rescue L10
U 1 1 56902D00
P 9400 2200
F 0 "L10" H 9400 2200 60  0000 C CNN
F 1 "WS2812B" H 9400 2500 60  0000 C CNN
F 2 "NeoPixel:WS2812B" H 9400 2200 60  0001 C CNN
F 3 "" H 9400 2200 60  0000 C CNN
	1    9400 2200
	1    0    0    -1  
$EndComp
$Comp
L esp-ring-rescue:WS2812B-RESCUE-ring-esp-ring-rescue-esp-ring-rescue-esp-ring-rescue L19
U 1 1 56902D07
P 7900 4200
F 0 "L19" H 7900 4200 60  0000 C CNN
F 1 "WS2812B" H 7900 4500 60  0000 C CNN
F 2 "NeoPixel:WS2812B" H 7900 4200 60  0001 C CNN
F 3 "" H 7900 4200 60  0000 C CNN
	1    7900 4200
	1    0    0    -1  
$EndComp
$Comp
L esp-ring-rescue:WS2812B-RESCUE-ring-esp-ring-rescue-esp-ring-rescue-esp-ring-rescue L16
U 1 1 56902D0E
P 3250 4200
F 0 "L16" H 3250 4200 60  0000 C CNN
F 1 "WS2812B" H 3250 4500 60  0000 C CNN
F 2 "NeoPixel:WS2812B" H 3250 4200 60  0001 C CNN
F 3 "" H 3250 4200 60  0000 C CNN
	1    3250 4200
	1    0    0    -1  
$EndComp
$Comp
L esp-ring-rescue:WS2812B-RESCUE-ring-esp-ring-rescue-esp-ring-rescue-esp-ring-rescue L11
U 1 1 56902D15
P 3250 3200
F 0 "L11" H 3250 3200 60  0000 C CNN
F 1 "WS2812B" H 3250 3500 60  0000 C CNN
F 2 "NeoPixel:WS2812B" H 3250 3200 60  0001 C CNN
F 3 "" H 3250 3200 60  0000 C CNN
	1    3250 3200
	1    0    0    -1  
$EndComp
$Comp
L esp-ring-rescue:WS2812B-RESCUE-ring-esp-ring-rescue-esp-ring-rescue-esp-ring-rescue L12
U 1 1 56902D1C
P 4800 3200
F 0 "L12" H 4800 3200 60  0000 C CNN
F 1 "WS2812B" H 4800 3500 60  0000 C CNN
F 2 "NeoPixel:WS2812B" H 4800 3200 60  0001 C CNN
F 3 "" H 4800 3200 60  0000 C CNN
	1    4800 3200
	1    0    0    -1  
$EndComp
$Comp
L esp-ring-rescue:WS2812B-RESCUE-ring-esp-ring-rescue-esp-ring-rescue-esp-ring-rescue L13
U 1 1 56902D23
P 6350 3200
F 0 "L13" H 6350 3200 60  0000 C CNN
F 1 "WS2812B" H 6350 3500 60  0000 C CNN
F 2 "NeoPixel:WS2812B" H 6350 3200 60  0001 C CNN
F 3 "" H 6350 3200 60  0000 C CNN
	1    6350 3200
	1    0    0    -1  
$EndComp
$Comp
L esp-ring-rescue:WS2812B-RESCUE-ring-esp-ring-rescue-esp-ring-rescue-esp-ring-rescue L14
U 1 1 56902D2A
P 7900 3200
F 0 "L14" H 7900 3200 60  0000 C CNN
F 1 "WS2812B" H 7900 3500 60  0000 C CNN
F 2 "NeoPixel:WS2812B" H 7900 3200 60  0001 C CNN
F 3 "" H 7900 3200 60  0000 C CNN
	1    7900 3200
	1    0    0    -1  
$EndComp
$Comp
L esp-ring-rescue:WS2812B-RESCUE-ring-esp-ring-rescue-esp-ring-rescue-esp-ring-rescue L15
U 1 1 56902D31
P 9400 3200
F 0 "L15" H 9400 3200 60  0000 C CNN
F 1 "WS2812B" H 9400 3500 60  0000 C CNN
F 2 "NeoPixel:WS2812B" H 9400 3200 60  0001 C CNN
F 3 "" H 9400 3200 60  0000 C CNN
	1    9400 3200
	1    0    0    -1  
$EndComp
$Comp
L esp-ring-rescue:WS2812B-RESCUE-ring-esp-ring-rescue-esp-ring-rescue-esp-ring-rescue L17
U 1 1 56902D38
P 4800 4200
F 0 "L17" H 4800 4200 60  0000 C CNN
F 1 "WS2812B" H 4800 4500 60  0000 C CNN
F 2 "NeoPixel:WS2812B" H 4800 4200 60  0001 C CNN
F 3 "" H 4800 4200 60  0000 C CNN
	1    4800 4200
	1    0    0    -1  
$EndComp
$Comp
L esp-ring-rescue:WS2812B-RESCUE-ring-esp-ring-rescue-esp-ring-rescue-esp-ring-rescue L18
U 1 1 56902D3F
P 6350 4200
F 0 "L18" H 6350 4200 60  0000 C CNN
F 1 "WS2812B" H 6350 4500 60  0000 C CNN
F 2 "NeoPixel:WS2812B" H 6350 4200 60  0001 C CNN
F 3 "" H 6350 4200 60  0000 C CNN
	1    6350 4200
	1    0    0    -1  
$EndComp
$Comp
L esp-ring-rescue:WS2812B-RESCUE-ring-esp-ring-rescue-esp-ring-rescue-esp-ring-rescue L20
U 1 1 56902D46
P 9400 4200
F 0 "L20" H 9400 4200 60  0000 C CNN
F 1 "WS2812B" H 9400 4500 60  0000 C CNN
F 2 "NeoPixel:WS2812B" H 9400 4200 60  0001 C CNN
F 3 "" H 9400 4200 60  0000 C CNN
	1    9400 4200
	1    0    0    -1  
$EndComp
$Comp
L esp-ring-rescue:WS2812B-RESCUE-ring-esp-ring-rescue-esp-ring-rescue-esp-ring-rescue L29
U 1 1 56902D4D
P 7900 6200
F 0 "L29" H 7900 6200 60  0000 C CNN
F 1 "WS2812B" H 7900 6500 60  0000 C CNN
F 2 "NeoPixel:WS2812B" H 7900 6200 60  0001 C CNN
F 3 "" H 7900 6200 60  0000 C CNN
	1    7900 6200
	1    0    0    -1  
$EndComp
$Comp
L esp-ring-rescue:WS2812B-RESCUE-ring-esp-ring-rescue-esp-ring-rescue-esp-ring-rescue L26
U 1 1 56902D54
P 3250 6150
F 0 "L26" H 3250 6150 60  0000 C CNN
F 1 "WS2812B" H 3250 6450 60  0000 C CNN
F 2 "NeoPixel:WS2812B" H 3250 6150 60  0001 C CNN
F 3 "" H 3250 6150 60  0000 C CNN
	1    3250 6150
	1    0    0    -1  
$EndComp
$Comp
L esp-ring-rescue:WS2812B-RESCUE-ring-esp-ring-rescue-esp-ring-rescue-esp-ring-rescue L21
U 1 1 56902D5B
P 3250 5200
F 0 "L21" H 3250 5200 60  0000 C CNN
F 1 "WS2812B" H 3250 5500 60  0000 C CNN
F 2 "NeoPixel:WS2812B" H 3250 5200 60  0001 C CNN
F 3 "" H 3250 5200 60  0000 C CNN
	1    3250 5200
	1    0    0    -1  
$EndComp
$Comp
L esp-ring-rescue:WS2812B-RESCUE-ring-esp-ring-rescue-esp-ring-rescue-esp-ring-rescue L22
U 1 1 56902D62
P 4800 5200
F 0 "L22" H 4800 5200 60  0000 C CNN
F 1 "WS2812B" H 4800 5500 60  0000 C CNN
F 2 "NeoPixel:WS2812B" H 4800 5200 60  0001 C CNN
F 3 "" H 4800 5200 60  0000 C CNN
	1    4800 5200
	1    0    0    -1  
$EndComp
$Comp
L esp-ring-rescue:WS2812B-RESCUE-ring-esp-ring-rescue-esp-ring-rescue-esp-ring-rescue L23
U 1 1 56902D69
P 6350 5200
F 0 "L23" H 6350 5200 60  0000 C CNN
F 1 "WS2812B" H 6350 5500 60  0000 C CNN
F 2 "NeoPixel:WS2812B" H 6350 5200 60  0001 C CNN
F 3 "" H 6350 5200 60  0000 C CNN
	1    6350 5200
	1    0    0    -1  
$EndComp
$Comp
L esp-ring-rescue:WS2812B-RESCUE-ring-esp-ring-rescue-esp-ring-rescue-esp-ring-rescue L24
U 1 1 56902D70
P 7900 5200
F 0 "L24" H 7900 5200 60  0000 C CNN
F 1 "WS2812B" H 7900 5500 60  0000 C CNN
F 2 "NeoPixel:WS2812B" H 7900 5200 60  0001 C CNN
F 3 "" H 7900 5200 60  0000 C CNN
	1    7900 5200
	1    0    0    -1  
$EndComp
$Comp
L esp-ring-rescue:WS2812B-RESCUE-ring-esp-ring-rescue-esp-ring-rescue-esp-ring-rescue L25
U 1 1 56902D77
P 9400 5200
F 0 "L25" H 9400 5200 60  0000 C CNN
F 1 "WS2812B" H 9400 5500 60  0000 C CNN
F 2 "NeoPixel:WS2812B" H 9400 5200 60  0001 C CNN
F 3 "" H 9400 5200 60  0000 C CNN
	1    9400 5200
	1    0    0    -1  
$EndComp
$Comp
L esp-ring-rescue:WS2812B-RESCUE-ring-esp-ring-rescue-esp-ring-rescue-esp-ring-rescue L27
U 1 1 56902D7E
P 4800 6200
F 0 "L27" H 4800 6200 60  0000 C CNN
F 1 "WS2812B" H 4800 6500 60  0000 C CNN
F 2 "NeoPixel:WS2812B" H 4800 6200 60  0001 C CNN
F 3 "" H 4800 6200 60  0000 C CNN
	1    4800 6200
	1    0    0    -1  
$EndComp
$Comp
L esp-ring-rescue:WS2812B-RESCUE-ring-esp-ring-rescue-esp-ring-rescue-esp-ring-rescue L28
U 1 1 56902D85
P 6350 6200
F 0 "L28" H 6350 6200 60  0000 C CNN
F 1 "WS2812B" H 6350 6500 60  0000 C CNN
F 2 "NeoPixel:WS2812B" H 6350 6200 60  0001 C CNN
F 3 "" H 6350 6200 60  0000 C CNN
	1    6350 6200
	1    0    0    -1  
$EndComp
$Comp
L esp-ring-rescue:WS2812B-RESCUE-ring-esp-ring-rescue-esp-ring-rescue-esp-ring-rescue L30
U 1 1 56902D8C
P 9400 6200
F 0 "L30" H 9400 6200 60  0000 C CNN
F 1 "WS2812B" H 9400 6500 60  0000 C CNN
F 2 "NeoPixel:WS2812B" H 9400 6200 60  0001 C CNN
F 3 "" H 9400 6200 60  0000 C CNN
	1    9400 6200
	1    0    0    -1  
$EndComp
$Comp
L power:GND #PWR01
U 1 1 56902D93
P 5250 1400
F 0 "#PWR01" H 5250 1150 50  0001 C CNN
F 1 "GND" H 5250 1250 50  0000 C CNN
F 2 "" H 5250 1400 50  0000 C CNN
F 3 "" H 5250 1400 50  0000 C CNN
	1    5250 1400
	0    -1   -1   0   
$EndComp
$Comp
L power:GND #PWR02
U 1 1 56902D99
P 3700 1400
F 0 "#PWR02" H 3700 1150 50  0001 C CNN
F 1 "GND" H 3700 1250 50  0000 C CNN
F 2 "" H 3700 1400 50  0000 C CNN
F 3 "" H 3700 1400 50  0000 C CNN
	1    3700 1400
	0    -1   -1   0   
$EndComp
$Comp
L power:GND #PWR03
U 1 1 56902D9F
P 6800 1400
F 0 "#PWR03" H 6800 1150 50  0001 C CNN
F 1 "GND" H 6800 1250 50  0000 C CNN
F 2 "" H 6800 1400 50  0000 C CNN
F 3 "" H 6800 1400 50  0000 C CNN
	1    6800 1400
	0    -1   -1   0   
$EndComp
$Comp
L power:GND #PWR04
U 1 1 56902DA5
P 8350 1400
F 0 "#PWR04" H 8350 1150 50  0001 C CNN
F 1 "GND" H 8350 1250 50  0000 C CNN
F 2 "" H 8350 1400 50  0000 C CNN
F 3 "" H 8350 1400 50  0000 C CNN
	1    8350 1400
	0    -1   -1   0   
$EndComp
$Comp
L power:GND #PWR05
U 1 1 56902DAB
P 3700 2400
F 0 "#PWR05" H 3700 2150 50  0001 C CNN
F 1 "GND" H 3700 2250 50  0000 C CNN
F 2 "" H 3700 2400 50  0000 C CNN
F 3 "" H 3700 2400 50  0000 C CNN
	1    3700 2400
	0    -1   -1   0   
$EndComp
$Comp
L power:GND #PWR06
U 1 1 56902DB1
P 5250 2400
F 0 "#PWR06" H 5250 2150 50  0001 C CNN
F 1 "GND" H 5250 2250 50  0000 C CNN
F 2 "" H 5250 2400 50  0000 C CNN
F 3 "" H 5250 2400 50  0000 C CNN
	1    5250 2400
	0    -1   -1   0   
$EndComp
$Comp
L power:GND #PWR07
U 1 1 56902DB7
P 6800 2400
F 0 "#PWR07" H 6800 2150 50  0001 C CNN
F 1 "GND" H 6800 2250 50  0000 C CNN
F 2 "" H 6800 2400 50  0000 C CNN
F 3 "" H 6800 2400 50  0000 C CNN
	1    6800 2400
	0    -1   -1   0   
$EndComp
$Comp
L power:GND #PWR08
U 1 1 56902DBD
P 8350 2400
F 0 "#PWR08" H 8350 2150 50  0001 C CNN
F 1 "GND" H 8350 2250 50  0000 C CNN
F 2 "" H 8350 2400 50  0000 C CNN
F 3 "" H 8350 2400 50  0000 C CNN
	1    8350 2400
	0    -1   -1   0   
$EndComp
$Comp
L power:GND #PWR09
U 1 1 56902DC3
P 3700 3400
F 0 "#PWR09" H 3700 3150 50  0001 C CNN
F 1 "GND" H 3700 3250 50  0000 C CNN
F 2 "" H 3700 3400 50  0000 C CNN
F 3 "" H 3700 3400 50  0000 C CNN
	1    3700 3400
	0    -1   -1   0   
$EndComp
$Comp
L power:GND #PWR010
U 1 1 56902DC9
P 5250 3400
F 0 "#PWR010" H 5250 3150 50  0001 C CNN
F 1 "GND" H 5250 3250 50  0000 C CNN
F 2 "" H 5250 3400 50  0000 C CNN
F 3 "" H 5250 3400 50  0000 C CNN
	1    5250 3400
	0    -1   -1   0   
$EndComp
$Comp
L power:GND #PWR011
U 1 1 56902DCF
P 6800 3400
F 0 "#PWR011" H 6800 3150 50  0001 C CNN
F 1 "GND" H 6800 3250 50  0000 C CNN
F 2 "" H 6800 3400 50  0000 C CNN
F 3 "" H 6800 3400 50  0000 C CNN
	1    6800 3400
	0    -1   -1   0   
$EndComp
$Comp
L power:GND #PWR012
U 1 1 56902DD5
P 8350 3400
F 0 "#PWR012" H 8350 3150 50  0001 C CNN
F 1 "GND" H 8350 3250 50  0000 C CNN
F 2 "" H 8350 3400 50  0000 C CNN
F 3 "" H 8350 3400 50  0000 C CNN
	1    8350 3400
	0    -1   -1   0   
$EndComp
$Comp
L power:GND #PWR013
U 1 1 56902DDB
P 9850 1400
F 0 "#PWR013" H 9850 1150 50  0001 C CNN
F 1 "GND" H 9850 1250 50  0000 C CNN
F 2 "" H 9850 1400 50  0000 C CNN
F 3 "" H 9850 1400 50  0000 C CNN
	1    9850 1400
	0    -1   -1   0   
$EndComp
$Comp
L power:GND #PWR014
U 1 1 56902DE1
P 9850 2400
F 0 "#PWR014" H 9850 2150 50  0001 C CNN
F 1 "GND" H 9850 2250 50  0000 C CNN
F 2 "" H 9850 2400 50  0000 C CNN
F 3 "" H 9850 2400 50  0000 C CNN
	1    9850 2400
	0    -1   -1   0   
$EndComp
$Comp
L power:GND #PWR015
U 1 1 56902DE7
P 9850 3400
F 0 "#PWR015" H 9850 3150 50  0001 C CNN
F 1 "GND" H 9850 3250 50  0000 C CNN
F 2 "" H 9850 3400 50  0000 C CNN
F 3 "" H 9850 3400 50  0000 C CNN
	1    9850 3400
	0    -1   -1   0   
$EndComp
$Comp
L power:GND #PWR016
U 1 1 56902DED
P 9850 4400
F 0 "#PWR016" H 9850 4150 50  0001 C CNN
F 1 "GND" H 9850 4250 50  0000 C CNN
F 2 "" H 9850 4400 50  0000 C CNN
F 3 "" H 9850 4400 50  0000 C CNN
	1    9850 4400
	0    -1   -1   0   
$EndComp
$Comp
L power:GND #PWR017
U 1 1 56902DF3
P 8350 4400
F 0 "#PWR017" H 8350 4150 50  0001 C CNN
F 1 "GND" H 8350 4250 50  0000 C CNN
F 2 "" H 8350 4400 50  0000 C CNN
F 3 "" H 8350 4400 50  0000 C CNN
	1    8350 4400
	0    -1   -1   0   
$EndComp
$Comp
L power:GND #PWR018
U 1 1 56902DF9
P 8350 5400
F 0 "#PWR018" H 8350 5150 50  0001 C CNN
F 1 "GND" H 8350 5250 50  0000 C CNN
F 2 "" H 8350 5400 50  0000 C CNN
F 3 "" H 8350 5400 50  0000 C CNN
	1    8350 5400
	0    -1   -1   0   
$EndComp
$Comp
L power:GND #PWR019
U 1 1 56902DFF
P 6800 5400
F 0 "#PWR019" H 6800 5150 50  0001 C CNN
F 1 "GND" H 6800 5250 50  0000 C CNN
F 2 "" H 6800 5400 50  0000 C CNN
F 3 "" H 6800 5400 50  0000 C CNN
	1    6800 5400
	0    -1   -1   0   
$EndComp
$Comp
L power:GND #PWR020
U 1 1 56902E05
P 5250 5400
F 0 "#PWR020" H 5250 5150 50  0001 C CNN
F 1 "GND" H 5250 5250 50  0000 C CNN
F 2 "" H 5250 5400 50  0000 C CNN
F 3 "" H 5250 5400 50  0000 C CNN
	1    5250 5400
	0    -1   -1   0   
$EndComp
$Comp
L power:GND #PWR021
U 1 1 56902E0B
P 5250 6400
F 0 "#PWR021" H 5250 6150 50  0001 C CNN
F 1 "GND" H 5250 6250 50  0000 C CNN
F 2 "" H 5250 6400 50  0000 C CNN
F 3 "" H 5250 6400 50  0000 C CNN
	1    5250 6400
	0    -1   -1   0   
$EndComp
$Comp
L power:GND #PWR022
U 1 1 56902E11
P 9850 5400
F 0 "#PWR022" H 9850 5150 50  0001 C CNN
F 1 "GND" H 9850 5250 50  0000 C CNN
F 2 "" H 9850 5400 50  0000 C CNN
F 3 "" H 9850 5400 50  0000 C CNN
	1    9850 5400
	0    -1   -1   0   
$EndComp
$Comp
L power:GND #PWR023
U 1 1 56902E17
P 3700 4400
F 0 "#PWR023" H 3700 4150 50  0001 C CNN
F 1 "GND" H 3700 4250 50  0000 C CNN
F 2 "" H 3700 4400 50  0000 C CNN
F 3 "" H 3700 4400 50  0000 C CNN
	1    3700 4400
	0    -1   -1   0   
$EndComp
$Comp
L power:GND #PWR024
U 1 1 56902E1D
P 3700 5400
F 0 "#PWR024" H 3700 5150 50  0001 C CNN
F 1 "GND" H 3700 5250 50  0000 C CNN
F 2 "" H 3700 5400 50  0000 C CNN
F 3 "" H 3700 5400 50  0000 C CNN
	1    3700 5400
	0    -1   -1   0   
$EndComp
$Comp
L power:GND #PWR025
U 1 1 56902E23
P 3700 6350
F 0 "#PWR025" H 3700 6100 50  0001 C CNN
F 1 "GND" H 3700 6200 50  0000 C CNN
F 2 "" H 3700 6350 50  0000 C CNN
F 3 "" H 3700 6350 50  0000 C CNN
	1    3700 6350
	0    -1   -1   0   
$EndComp
$Comp
L power:GND #PWR026
U 1 1 56902E29
P 8350 6400
F 0 "#PWR026" H 8350 6150 50  0001 C CNN
F 1 "GND" H 8350 6250 50  0000 C CNN
F 2 "" H 8350 6400 50  0000 C CNN
F 3 "" H 8350 6400 50  0000 C CNN
	1    8350 6400
	0    -1   -1   0   
$EndComp
$Comp
L power:GND #PWR027
U 1 1 56902E2F
P 9850 6400
F 0 "#PWR027" H 9850 6150 50  0001 C CNN
F 1 "GND" H 9850 6250 50  0000 C CNN
F 2 "" H 9850 6400 50  0000 C CNN
F 3 "" H 9850 6400 50  0000 C CNN
	1    9850 6400
	0    -1   -1   0   
$EndComp
$Comp
L power:GND #PWR028
U 1 1 56902E35
P 6800 6400
F 0 "#PWR028" H 6800 6150 50  0001 C CNN
F 1 "GND" H 6800 6250 50  0000 C CNN
F 2 "" H 6800 6400 50  0000 C CNN
F 3 "" H 6800 6400 50  0000 C CNN
	1    6800 6400
	0    -1   -1   0   
$EndComp
$Comp
L power:GND #PWR029
U 1 1 56902E3B
P 5250 4400
F 0 "#PWR029" H 5250 4150 50  0001 C CNN
F 1 "GND" H 5250 4250 50  0000 C CNN
F 2 "" H 5250 4400 50  0000 C CNN
F 3 "" H 5250 4400 50  0000 C CNN
	1    5250 4400
	0    -1   -1   0   
$EndComp
$Comp
L power:GND #PWR030
U 1 1 56902E41
P 6800 4400
F 0 "#PWR030" H 6800 4150 50  0001 C CNN
F 1 "GND" H 6800 4250 50  0000 C CNN
F 2 "" H 6800 4400 50  0000 C CNN
F 3 "" H 6800 4400 50  0000 C CNN
	1    6800 4400
	0    -1   -1   0   
$EndComp
$Comp
L esp-ring-rescue:C-esp-ring-rescue-esp-ring-rescue-esp-ring-rescue C30
U 1 1 56902E47
P 8800 6150
F 0 "C30" H 8850 6250 50  0000 L CNN
F 1 "104" H 8850 6050 50  0000 L CNN
F 2 "Capacitors_SMD:C_0805_HandSoldering" H 8838 6000 50  0001 C CNN
F 3 "" H 8800 6150 50  0000 C CNN
	1    8800 6150
	1    0    0    -1  
$EndComp
$Comp
L power:GND #PWR031
U 1 1 56902E4E
P 8800 6300
F 0 "#PWR031" H 8800 6050 50  0001 C CNN
F 1 "GND" H 8800 6150 50  0000 C CNN
F 2 "" H 8800 6300 50  0000 C CNN
F 3 "" H 8800 6300 50  0000 C CNN
	1    8800 6300
	1    0    0    -1  
$EndComp
$Comp
L esp-ring-rescue:C-esp-ring-rescue-esp-ring-rescue-esp-ring-rescue C28
U 1 1 56902E54
P 5750 6150
F 0 "C28" H 5775 6250 50  0000 L CNN
F 1 "104" H 5775 6050 50  0000 L CNN
F 2 "Capacitors_SMD:C_0805_HandSoldering" H 5788 6000 50  0001 C CNN
F 3 "" H 5750 6150 50  0000 C CNN
	1    5750 6150
	1    0    0    -1  
$EndComp
$Comp
L power:GND #PWR032
U 1 1 56902E5B
P 5750 6300
F 0 "#PWR032" H 5750 6050 50  0001 C CNN
F 1 "GND" H 5750 6150 50  0000 C CNN
F 2 "" H 5750 6300 50  0000 C CNN
F 3 "" H 5750 6300 50  0000 C CNN
	1    5750 6300
	1    0    0    -1  
$EndComp
$Comp
L esp-ring-rescue:C-esp-ring-rescue-esp-ring-rescue-esp-ring-rescue C27
U 1 1 56902E61
P 4200 6150
F 0 "C27" H 4225 6250 50  0000 L CNN
F 1 "104" H 4225 6050 50  0000 L CNN
F 2 "Capacitors_SMD:C_0805_HandSoldering" H 4238 6000 50  0001 C CNN
F 3 "" H 4200 6150 50  0000 C CNN
	1    4200 6150
	1    0    0    -1  
$EndComp
$Comp
L power:GND #PWR033
U 1 1 56902E68
P 4200 6300
F 0 "#PWR033" H 4200 6050 50  0001 C CNN
F 1 "GND" H 4200 6150 50  0000 C CNN
F 2 "" H 4200 6300 50  0000 C CNN
F 3 "" H 4200 6300 50  0000 C CNN
	1    4200 6300
	1    0    0    -1  
$EndComp
$Comp
L esp-ring-rescue:C-esp-ring-rescue-esp-ring-rescue-esp-ring-rescue C26
U 1 1 56902E6E
P 2650 6100
F 0 "C26" H 2675 6200 50  0000 L CNN
F 1 "104" H 2675 6000 50  0000 L CNN
F 2 "Capacitors_SMD:C_0805_HandSoldering" H 2688 5950 50  0001 C CNN
F 3 "" H 2650 6100 50  0000 C CNN
	1    2650 6100
	1    0    0    -1  
$EndComp
$Comp
L power:GND #PWR034
U 1 1 56902E75
P 2650 6250
F 0 "#PWR034" H 2650 6000 50  0001 C CNN
F 1 "GND" H 2650 6100 50  0000 C CNN
F 2 "" H 2650 6250 50  0000 C CNN
F 3 "" H 2650 6250 50  0000 C CNN
	1    2650 6250
	1    0    0    -1  
$EndComp
$Comp
L esp-ring-rescue:C-esp-ring-rescue-esp-ring-rescue-esp-ring-rescue C29
U 1 1 56902E7B
P 7300 6150
F 0 "C29" H 7325 6250 50  0000 L CNN
F 1 "104" H 7325 6050 50  0000 L CNN
F 2 "Capacitors_SMD:C_0805_HandSoldering" H 7338 6000 50  0001 C CNN
F 3 "" H 7300 6150 50  0000 C CNN
	1    7300 6150
	1    0    0    -1  
$EndComp
$Comp
L power:GND #PWR035
U 1 1 56902E82
P 7300 6300
F 0 "#PWR035" H 7300 6050 50  0001 C CNN
F 1 "GND" H 7300 6150 50  0000 C CNN
F 2 "" H 7300 6300 50  0000 C CNN
F 3 "" H 7300 6300 50  0000 C CNN
	1    7300 6300
	1    0    0    -1  
$EndComp
$Comp
L esp-ring-rescue:C-esp-ring-rescue-esp-ring-rescue-esp-ring-rescue C23
U 1 1 56902E88
P 5750 5150
F 0 "C23" H 5775 5250 50  0000 L CNN
F 1 "104" H 5775 5050 50  0000 L CNN
F 2 "Capacitors_SMD:C_0805_HandSoldering" H 5788 5000 50  0001 C CNN
F 3 "" H 5750 5150 50  0000 C CNN
	1    5750 5150
	1    0    0    -1  
$EndComp
$Comp
L power:GND #PWR036
U 1 1 56902E8F
P 5750 5300
F 0 "#PWR036" H 5750 5050 50  0001 C CNN
F 1 "GND" H 5750 5150 50  0000 C CNN
F 2 "" H 5750 5300 50  0000 C CNN
F 3 "" H 5750 5300 50  0000 C CNN
	1    5750 5300
	1    0    0    -1  
$EndComp
$Comp
L esp-ring-rescue:C-esp-ring-rescue-esp-ring-rescue-esp-ring-rescue C24
U 1 1 56902E95
P 7300 5150
F 0 "C24" H 7325 5250 50  0000 L CNN
F 1 "104" H 7325 5050 50  0000 L CNN
F 2 "Capacitors_SMD:C_0805_HandSoldering" H 7338 5000 50  0001 C CNN
F 3 "" H 7300 5150 50  0000 C CNN
	1    7300 5150
	1    0    0    -1  
$EndComp
$Comp
L power:GND #PWR037
U 1 1 56902E9C
P 7300 5300
F 0 "#PWR037" H 7300 5050 50  0001 C CNN
F 1 "GND" H 7300 5150 50  0000 C CNN
F 2 "" H 7300 5300 50  0000 C CNN
F 3 "" H 7300 5300 50  0000 C CNN
	1    7300 5300
	1    0    0    -1  
$EndComp
$Comp
L esp-ring-rescue:C-esp-ring-rescue-esp-ring-rescue-esp-ring-rescue C22
U 1 1 56902EA2
P 4200 5150
F 0 "C22" H 4225 5250 50  0000 L CNN
F 1 "104" H 4225 5050 50  0000 L CNN
F 2 "Capacitors_SMD:C_0805_HandSoldering" H 4238 5000 50  0001 C CNN
F 3 "" H 4200 5150 50  0000 C CNN
	1    4200 5150
	1    0    0    -1  
$EndComp
$Comp
L power:GND #PWR038
U 1 1 56902EA9
P 4200 5300
F 0 "#PWR038" H 4200 5050 50  0001 C CNN
F 1 "GND" H 4200 5150 50  0000 C CNN
F 2 "" H 4200 5300 50  0000 C CNN
F 3 "" H 4200 5300 50  0000 C CNN
	1    4200 5300
	1    0    0    -1  
$EndComp
$Comp
L esp-ring-rescue:C-esp-ring-rescue-esp-ring-rescue-esp-ring-rescue C21
U 1 1 5692B809
P 2650 5150
F 0 "C21" H 2675 5250 50  0000 L CNN
F 1 "104" H 2675 5050 50  0000 L CNN
F 2 "Capacitors_SMD:C_0805_HandSoldering" H 2688 5000 50  0001 C CNN
F 3 "" H 2650 5150 50  0000 C CNN
	1    2650 5150
	1    0    0    -1  
$EndComp
$Comp
L power:GND #PWR039
U 1 1 56902EB6
P 2650 5300
F 0 "#PWR039" H 2650 5050 50  0001 C CNN
F 1 "GND" H 2650 5150 50  0000 C CNN
F 2 "" H 2650 5300 50  0000 C CNN
F 3 "" H 2650 5300 50  0000 C CNN
	1    2650 5300
	1    0    0    -1  
$EndComp
$Comp
L esp-ring-rescue:C-esp-ring-rescue-esp-ring-rescue-esp-ring-rescue C25
U 1 1 56902EBC
P 8800 5150
F 0 "C25" H 8825 5250 50  0000 L CNN
F 1 "104" H 8825 5050 50  0000 L CNN
F 2 "Capacitors_SMD:C_0805_HandSoldering" H 8838 5000 50  0001 C CNN
F 3 "" H 8800 5150 50  0000 C CNN
	1    8800 5150
	1    0    0    -1  
$EndComp
$Comp
L power:GND #PWR040
U 1 1 56902EC3
P 8800 5300
F 0 "#PWR040" H 8800 5050 50  0001 C CNN
F 1 "GND" H 8800 5150 50  0000 C CNN
F 2 "" H 8800 5300 50  0000 C CNN
F 3 "" H 8800 5300 50  0000 C CNN
	1    8800 5300
	1    0    0    -1  
$EndComp
$Comp
L esp-ring-rescue:C-esp-ring-rescue-esp-ring-rescue-esp-ring-rescue C20
U 1 1 56902EC9
P 8800 4150
F 0 "C20" H 8825 4250 50  0000 L CNN
F 1 "104" H 8825 4050 50  0000 L CNN
F 2 "Capacitors_SMD:C_0805_HandSoldering" H 8838 4000 50  0001 C CNN
F 3 "" H 8800 4150 50  0000 C CNN
	1    8800 4150
	1    0    0    -1  
$EndComp
$Comp
L power:GND #PWR041
U 1 1 56902ED0
P 8800 4300
F 0 "#PWR041" H 8800 4050 50  0001 C CNN
F 1 "GND" H 8800 4150 50  0000 C CNN
F 2 "" H 8800 4300 50  0000 C CNN
F 3 "" H 8800 4300 50  0000 C CNN
	1    8800 4300
	1    0    0    -1  
$EndComp
$Comp
L esp-ring-rescue:C-esp-ring-rescue-esp-ring-rescue-esp-ring-rescue C19
U 1 1 56902ED6
P 7300 4150
F 0 "C19" H 7325 4250 50  0000 L CNN
F 1 "104" H 7325 4050 50  0000 L CNN
F 2 "Capacitors_SMD:C_0805_HandSoldering" H 7338 4000 50  0001 C CNN
F 3 "" H 7300 4150 50  0000 C CNN
	1    7300 4150
	1    0    0    -1  
$EndComp
$Comp
L power:GND #PWR042
U 1 1 56902EDD
P 7300 4300
F 0 "#PWR042" H 7300 4050 50  0001 C CNN
F 1 "GND" H 7300 4150 50  0000 C CNN
F 2 "" H 7300 4300 50  0000 C CNN
F 3 "" H 7300 4300 50  0000 C CNN
	1    7300 4300
	1    0    0    -1  
$EndComp
$Comp
L esp-ring-rescue:C-esp-ring-rescue-esp-ring-rescue-esp-ring-rescue C18
U 1 1 56902EE3
P 5750 4150
F 0 "C18" H 5775 4250 50  0000 L CNN
F 1 "104" H 5775 4050 50  0000 L CNN
F 2 "Capacitors_SMD:C_0805_HandSoldering" H 5788 4000 50  0001 C CNN
F 3 "" H 5750 4150 50  0000 C CNN
	1    5750 4150
	1    0    0    -1  
$EndComp
$Comp
L power:GND #PWR043
U 1 1 56902EEA
P 5750 4300
F 0 "#PWR043" H 5750 4050 50  0001 C CNN
F 1 "GND" H 5750 4150 50  0000 C CNN
F 2 "" H 5750 4300 50  0000 C CNN
F 3 "" H 5750 4300 50  0000 C CNN
	1    5750 4300
	1    0    0    -1  
$EndComp
$Comp
L esp-ring-rescue:C-esp-ring-rescue-esp-ring-rescue-esp-ring-rescue C17
U 1 1 56902EF0
P 4200 4150
F 0 "C17" H 4225 4250 50  0000 L CNN
F 1 "104" H 4225 4050 50  0000 L CNN
F 2 "Capacitors_SMD:C_0805_HandSoldering" H 4238 4000 50  0001 C CNN
F 3 "" H 4200 4150 50  0000 C CNN
	1    4200 4150
	1    0    0    -1  
$EndComp
$Comp
L power:GND #PWR044
U 1 1 56902EF7
P 4200 4300
F 0 "#PWR044" H 4200 4050 50  0001 C CNN
F 1 "GND" H 4200 4150 50  0000 C CNN
F 2 "" H 4200 4300 50  0000 C CNN
F 3 "" H 4200 4300 50  0000 C CNN
	1    4200 4300
	1    0    0    -1  
$EndComp
$Comp
L esp-ring-rescue:C-esp-ring-rescue-esp-ring-rescue-esp-ring-rescue C16
U 1 1 56902EFD
P 2650 4150
F 0 "C16" H 2675 4250 50  0000 L CNN
F 1 "104" H 2675 4050 50  0000 L CNN
F 2 "Capacitors_SMD:C_0805_HandSoldering" H 2688 4000 50  0001 C CNN
F 3 "" H 2650 4150 50  0000 C CNN
	1    2650 4150
	1    0    0    -1  
$EndComp
$Comp
L power:GND #PWR045
U 1 1 56902F04
P 2650 4300
F 0 "#PWR045" H 2650 4050 50  0001 C CNN
F 1 "GND" H 2650 4150 50  0000 C CNN
F 2 "" H 2650 4300 50  0000 C CNN
F 3 "" H 2650 4300 50  0000 C CNN
	1    2650 4300
	1    0    0    -1  
$EndComp
$Comp
L esp-ring-rescue:C-esp-ring-rescue-esp-ring-rescue-esp-ring-rescue C15
U 1 1 56902F0A
P 8800 3150
F 0 "C15" H 8825 3250 50  0000 L CNN
F 1 "104" H 8825 3050 50  0000 L CNN
F 2 "Capacitors_SMD:C_0805_HandSoldering" H 8838 3000 50  0001 C CNN
F 3 "" H 8800 3150 50  0000 C CNN
	1    8800 3150
	1    0    0    -1  
$EndComp
$Comp
L power:GND #PWR046
U 1 1 56902F11
P 8800 3300
F 0 "#PWR046" H 8800 3050 50  0001 C CNN
F 1 "GND" H 8800 3150 50  0000 C CNN
F 2 "" H 8800 3300 50  0000 C CNN
F 3 "" H 8800 3300 50  0000 C CNN
	1    8800 3300
	1    0    0    -1  
$EndComp
$Comp
L esp-ring-rescue:C-esp-ring-rescue-esp-ring-rescue-esp-ring-rescue C14
U 1 1 56902F17
P 7300 3150
F 0 "C14" H 7325 3250 50  0000 L CNN
F 1 "104" H 7325 3050 50  0000 L CNN
F 2 "Capacitors_SMD:C_0805_HandSoldering" H 7338 3000 50  0001 C CNN
F 3 "" H 7300 3150 50  0000 C CNN
	1    7300 3150
	1    0    0    -1  
$EndComp
$Comp
L power:GND #PWR047
U 1 1 56902F1E
P 7300 3300
F 0 "#PWR047" H 7300 3050 50  0001 C CNN
F 1 "GND" H 7300 3150 50  0000 C CNN
F 2 "" H 7300 3300 50  0000 C CNN
F 3 "" H 7300 3300 50  0000 C CNN
	1    7300 3300
	1    0    0    -1  
$EndComp
$Comp
L esp-ring-rescue:C-esp-ring-rescue-esp-ring-rescue-esp-ring-rescue C13
U 1 1 56902F24
P 5750 3150
F 0 "C13" H 5775 3250 50  0000 L CNN
F 1 "104" H 5775 3050 50  0000 L CNN
F 2 "Capacitors_SMD:C_0805_HandSoldering" H 5788 3000 50  0001 C CNN
F 3 "" H 5750 3150 50  0000 C CNN
	1    5750 3150
	1    0    0    -1  
$EndComp
$Comp
L power:GND #PWR048
U 1 1 56902F2B
P 5750 3300
F 0 "#PWR048" H 5750 3050 50  0001 C CNN
F 1 "GND" H 5750 3150 50  0000 C CNN
F 2 "" H 5750 3300 50  0000 C CNN
F 3 "" H 5750 3300 50  0000 C CNN
	1    5750 3300
	1    0    0    -1  
$EndComp
$Comp
L esp-ring-rescue:C-esp-ring-rescue-esp-ring-rescue-esp-ring-rescue C12
U 1 1 56902F31
P 4200 3150
F 0 "C12" H 4225 3250 50  0000 L CNN
F 1 "104" H 4225 3050 50  0000 L CNN
F 2 "Capacitors_SMD:C_0805_HandSoldering" H 4238 3000 50  0001 C CNN
F 3 "" H 4200 3150 50  0000 C CNN
	1    4200 3150
	1    0    0    -1  
$EndComp
$Comp
L power:GND #PWR049
U 1 1 56902F38
P 4200 3300
F 0 "#PWR049" H 4200 3050 50  0001 C CNN
F 1 "GND" H 4200 3150 50  0000 C CNN
F 2 "" H 4200 3300 50  0000 C CNN
F 3 "" H 4200 3300 50  0000 C CNN
	1    4200 3300
	1    0    0    -1  
$EndComp
$Comp
L esp-ring-rescue:C-esp-ring-rescue-esp-ring-rescue-esp-ring-rescue C11
U 1 1 56902F3E
P 2650 3150
F 0 "C11" H 2675 3250 50  0000 L CNN
F 1 "104" H 2675 3050 50  0000 L CNN
F 2 "Capacitors_SMD:C_0805_HandSoldering" H 2688 3000 50  0001 C CNN
F 3 "" H 2650 3150 50  0000 C CNN
	1    2650 3150
	1    0    0    -1  
$EndComp
$Comp
L power:GND #PWR050
U 1 1 56902F45
P 2650 3300
F 0 "#PWR050" H 2650 3050 50  0001 C CNN
F 1 "GND" H 2650 3150 50  0000 C CNN
F 2 "" H 2650 3300 50  0000 C CNN
F 3 "" H 2650 3300 50  0000 C CNN
	1    2650 3300
	1    0    0    -1  
$EndComp
$Comp
L esp-ring-rescue:C-esp-ring-rescue-esp-ring-rescue-esp-ring-rescue C10
U 1 1 56902F4B
P 8800 2150
F 0 "C10" H 8825 2250 50  0000 L CNN
F 1 "104" H 8825 2050 50  0000 L CNN
F 2 "Capacitors_SMD:C_0805_HandSoldering" H 8838 2000 50  0001 C CNN
F 3 "" H 8800 2150 50  0000 C CNN
	1    8800 2150
	1    0    0    -1  
$EndComp
$Comp
L power:GND #PWR051
U 1 1 56902F52
P 8800 2300
F 0 "#PWR051" H 8800 2050 50  0001 C CNN
F 1 "GND" H 8800 2150 50  0000 C CNN
F 2 "" H 8800 2300 50  0000 C CNN
F 3 "" H 8800 2300 50  0000 C CNN
	1    8800 2300
	1    0    0    -1  
$EndComp
$Comp
L esp-ring-rescue:C-esp-ring-rescue-esp-ring-rescue-esp-ring-rescue C9
U 1 1 56902F58
P 7300 2150
F 0 "C9" H 7325 2250 50  0000 L CNN
F 1 "104" H 7325 2050 50  0000 L CNN
F 2 "Capacitors_SMD:C_0805_HandSoldering" H 7338 2000 50  0001 C CNN
F 3 "" H 7300 2150 50  0000 C CNN
	1    7300 2150
	1    0    0    -1  
$EndComp
$Comp
L power:GND #PWR052
U 1 1 56902F5F
P 7300 2300
F 0 "#PWR052" H 7300 2050 50  0001 C CNN
F 1 "GND" H 7300 2150 50  0000 C CNN
F 2 "" H 7300 2300 50  0000 C CNN
F 3 "" H 7300 2300 50  0000 C CNN
	1    7300 2300
	1    0    0    -1  
$EndComp
$Comp
L esp-ring-rescue:C-esp-ring-rescue-esp-ring-rescue-esp-ring-rescue C8
U 1 1 56902F65
P 5750 2150
F 0 "C8" H 5775 2250 50  0000 L CNN
F 1 "104" H 5775 2050 50  0000 L CNN
F 2 "Capacitors_SMD:C_0805_HandSoldering" H 5788 2000 50  0001 C CNN
F 3 "" H 5750 2150 50  0000 C CNN
	1    5750 2150
	1    0    0    -1  
$EndComp
$Comp
L power:GND #PWR053
U 1 1 56902F6C
P 5750 2300
F 0 "#PWR053" H 5750 2050 50  0001 C CNN
F 1 "GND" H 5750 2150 50  0000 C CNN
F 2 "" H 5750 2300 50  0000 C CNN
F 3 "" H 5750 2300 50  0000 C CNN
	1    5750 2300
	1    0    0    -1  
$EndComp
$Comp
L esp-ring-rescue:C-esp-ring-rescue-esp-ring-rescue-esp-ring-rescue C7
U 1 1 56902F72
P 4200 2150
F 0 "C7" H 4225 2250 50  0000 L CNN
F 1 "104" H 4225 2050 50  0000 L CNN
F 2 "Capacitors_SMD:C_0805_HandSoldering" H 4238 2000 50  0001 C CNN
F 3 "" H 4200 2150 50  0000 C CNN
	1    4200 2150
	1    0    0    -1  
$EndComp
$Comp
L power:GND #PWR054
U 1 1 56902F79
P 4200 2300
F 0 "#PWR054" H 4200 2050 50  0001 C CNN
F 1 "GND" H 4200 2150 50  0000 C CNN
F 2 "" H 4200 2300 50  0000 C CNN
F 3 "" H 4200 2300 50  0000 C CNN
	1    4200 2300
	1    0    0    -1  
$EndComp
$Comp
L esp-ring-rescue:C-esp-ring-rescue-esp-ring-rescue-esp-ring-rescue C6
U 1 1 56902F7F
P 2650 2150
F 0 "C6" H 2675 2250 50  0000 L CNN
F 1 "104" H 2675 2050 50  0000 L CNN
F 2 "Capacitors_SMD:C_0805_HandSoldering" H 2688 2000 50  0001 C CNN
F 3 "" H 2650 2150 50  0000 C CNN
	1    2650 2150
	1    0    0    -1  
$EndComp
$Comp
L power:GND #PWR055
U 1 1 56902F86
P 2650 2300
F 0 "#PWR055" H 2650 2050 50  0001 C CNN
F 1 "GND" H 2650 2150 50  0000 C CNN
F 2 "" H 2650 2300 50  0000 C CNN
F 3 "" H 2650 2300 50  0000 C CNN
	1    2650 2300
	1    0    0    -1  
$EndComp
$Comp
L esp-ring-rescue:C-esp-ring-rescue-esp-ring-rescue-esp-ring-rescue C5
U 1 1 56902F8C
P 8800 1150
F 0 "C5" H 8825 1250 50  0000 L CNN
F 1 "104" H 8825 1050 50  0000 L CNN
F 2 "Capacitors_SMD:C_0805_HandSoldering" H 8838 1000 50  0001 C CNN
F 3 "" H 8800 1150 50  0000 C CNN
	1    8800 1150
	1    0    0    -1  
$EndComp
$Comp
L power:GND #PWR056
U 1 1 56902F93
P 8800 1300
F 0 "#PWR056" H 8800 1050 50  0001 C CNN
F 1 "GND" H 8800 1150 50  0000 C CNN
F 2 "" H 8800 1300 50  0000 C CNN
F 3 "" H 8800 1300 50  0000 C CNN
	1    8800 1300
	1    0    0    -1  
$EndComp
$Comp
L esp-ring-rescue:C-esp-ring-rescue-esp-ring-rescue-esp-ring-rescue C4
U 1 1 56902F99
P 7300 1150
F 0 "C4" H 7325 1250 50  0000 L CNN
F 1 "104" H 7325 1050 50  0000 L CNN
F 2 "Capacitors_SMD:C_0805_HandSoldering" H 7338 1000 50  0001 C CNN
F 3 "" H 7300 1150 50  0000 C CNN
	1    7300 1150
	1    0    0    -1  
$EndComp
$Comp
L power:GND #PWR057
U 1 1 56902FA0
P 7300 1300
F 0 "#PWR057" H 7300 1050 50  0001 C CNN
F 1 "GND" H 7300 1150 50  0000 C CNN
F 2 "" H 7300 1300 50  0000 C CNN
F 3 "" H 7300 1300 50  0000 C CNN
	1    7300 1300
	1    0    0    -1  
$EndComp
$Comp
L esp-ring-rescue:C-esp-ring-rescue-esp-ring-rescue-esp-ring-rescue C3
U 1 1 56902FA6
P 5750 1150
F 0 "C3" H 5775 1250 50  0000 L CNN
F 1 "104" H 5775 1050 50  0000 L CNN
F 2 "Capacitors_SMD:C_0805_HandSoldering" H 5788 1000 50  0001 C CNN
F 3 "" H 5750 1150 50  0000 C CNN
	1    5750 1150
	1    0    0    -1  
$EndComp
$Comp
L power:GND #PWR058
U 1 1 56902FAD
P 5750 1300
F 0 "#PWR058" H 5750 1050 50  0001 C CNN
F 1 "GND" H 5750 1150 50  0000 C CNN
F 2 "" H 5750 1300 50  0000 C CNN
F 3 "" H 5750 1300 50  0000 C CNN
	1    5750 1300
	1    0    0    -1  
$EndComp
$Comp
L esp-ring-rescue:C-esp-ring-rescue-esp-ring-rescue-esp-ring-rescue C2
U 1 1 56902FB3
P 4200 1150
F 0 "C2" H 4225 1250 50  0000 L CNN
F 1 "104" H 4225 1050 50  0000 L CNN
F 2 "Capacitors_SMD:C_0805_HandSoldering" H 4238 1000 50  0001 C CNN
F 3 "" H 4200 1150 50  0000 C CNN
	1    4200 1150
	1    0    0    -1  
$EndComp
$Comp
L power:GND #PWR059
U 1 1 56902FBA
P 4200 1300
F 0 "#PWR059" H 4200 1050 50  0001 C CNN
F 1 "GND" H 4200 1150 50  0000 C CNN
F 2 "" H 4200 1300 50  0000 C CNN
F 3 "" H 4200 1300 50  0000 C CNN
	1    4200 1300
	1    0    0    -1  
$EndComp
$Comp
L esp-ring-rescue:R-esp-ring-rescue-esp-ring-rescue-esp-ring-rescue R1
U 1 1 5690318B
P 3300 750
F 0 "R1" V 3200 750 50  0000 C CNN
F 1 "471" V 3300 750 50  0000 C CNN
F 2 "Resistors_SMD:R_0603_HandSoldering" V 3230 750 50  0001 C CNN
F 3 "" H 3300 750 50  0000 C CNN
	1    3300 750 
	0    1    1    0   
$EndComp
$Comp
L power:+5V #PWR060
U 1 1 569031C2
P 2800 1000
F 0 "#PWR060" H 2800 850 50  0001 C CNN
F 1 "+5V" H 2800 1140 50  0000 C CNN
F 2 "" H 2800 1000 50  0000 C CNN
F 3 "" H 2800 1000 50  0000 C CNN
	1    2800 1000
	1    0    0    -1  
$EndComp
$Comp
L power:+5V #PWR061
U 1 1 569031C9
P 2650 2000
F 0 "#PWR061" H 2650 1850 50  0001 C CNN
F 1 "+5V" H 2650 2140 50  0000 C CNN
F 2 "" H 2650 2000 50  0000 C CNN
F 3 "" H 2650 2000 50  0000 C CNN
	1    2650 2000
	1    0    0    -1  
$EndComp
$Comp
L power:+5V #PWR062
U 1 1 569031CF
P 2650 3000
F 0 "#PWR062" H 2650 2850 50  0001 C CNN
F 1 "+5V" H 2650 3140 50  0000 C CNN
F 2 "" H 2650 3000 50  0000 C CNN
F 3 "" H 2650 3000 50  0000 C CNN
	1    2650 3000
	1    0    0    -1  
$EndComp
$Comp
L power:+5V #PWR063
U 1 1 569031D5
P 2650 4000
F 0 "#PWR063" H 2650 3850 50  0001 C CNN
F 1 "+5V" H 2650 4140 50  0000 C CNN
F 2 "" H 2650 4000 50  0000 C CNN
F 3 "" H 2650 4000 50  0000 C CNN
	1    2650 4000
	1    0    0    -1  
$EndComp
$Comp
L power:+5V #PWR064
U 1 1 569031DB
P 2650 5000
F 0 "#PWR064" H 2650 4850 50  0001 C CNN
F 1 "+5V" H 2650 5140 50  0000 C CNN
F 2 "" H 2650 5000 50  0000 C CNN
F 3 "" H 2650 5000 50  0000 C CNN
	1    2650 5000
	1    0    0    -1  
$EndComp
$Comp
L power:+5V #PWR065
U 1 1 569031E1
P 2650 5950
F 0 "#PWR065" H 2650 5800 50  0001 C CNN
F 1 "+5V" H 2650 6090 50  0000 C CNN
F 2 "" H 2650 5950 50  0000 C CNN
F 3 "" H 2650 5950 50  0000 C CNN
	1    2650 5950
	1    0    0    -1  
$EndComp
$Comp
L power:+5V #PWR066
U 1 1 569031E7
P 7300 6000
F 0 "#PWR066" H 7300 5850 50  0001 C CNN
F 1 "+5V" H 7300 6140 50  0000 C CNN
F 2 "" H 7300 6000 50  0000 C CNN
F 3 "" H 7300 6000 50  0000 C CNN
	1    7300 6000
	1    0    0    -1  
$EndComp
$Comp
L power:+5V #PWR067
U 1 1 569031ED
P 8800 6000
F 0 "#PWR067" H 8800 5850 50  0001 C CNN
F 1 "+5V" H 8800 6140 50  0000 C CNN
F 2 "" H 8800 6000 50  0000 C CNN
F 3 "" H 8800 6000 50  0000 C CNN
	1    8800 6000
	1    0    0    -1  
$EndComp
$Comp
L power:+5V #PWR068
U 1 1 569031F3
P 4200 6000
F 0 "#PWR068" H 4200 5850 50  0001 C CNN
F 1 "+5V" H 4200 6140 50  0000 C CNN
F 2 "" H 4200 6000 50  0000 C CNN
F 3 "" H 4200 6000 50  0000 C CNN
	1    4200 6000
	1    0    0    -1  
$EndComp
$Comp
L power:+5V #PWR069
U 1 1 569031F9
P 4200 5000
F 0 "#PWR069" H 4200 4850 50  0001 C CNN
F 1 "+5V" H 4200 5140 50  0000 C CNN
F 2 "" H 4200 5000 50  0000 C CNN
F 3 "" H 4200 5000 50  0000 C CNN
	1    4200 5000
	1    0    0    -1  
$EndComp
$Comp
L power:+5V #PWR070
U 1 1 569031FF
P 4200 4000
F 0 "#PWR070" H 4200 3850 50  0001 C CNN
F 1 "+5V" H 4200 4140 50  0000 C CNN
F 2 "" H 4200 4000 50  0000 C CNN
F 3 "" H 4200 4000 50  0000 C CNN
	1    4200 4000
	1    0    0    -1  
$EndComp
$Comp
L power:+5V #PWR071
U 1 1 56903205
P 4200 3000
F 0 "#PWR071" H 4200 2850 50  0001 C CNN
F 1 "+5V" H 4200 3140 50  0000 C CNN
F 2 "" H 4200 3000 50  0000 C CNN
F 3 "" H 4200 3000 50  0000 C CNN
	1    4200 3000
	1    0    0    -1  
$EndComp
$Comp
L power:+5V #PWR072
U 1 1 5690320B
P 5750 3000
F 0 "#PWR072" H 5750 2850 50  0001 C CNN
F 1 "+5V" H 5750 3140 50  0000 C CNN
F 2 "" H 5750 3000 50  0000 C CNN
F 3 "" H 5750 3000 50  0000 C CNN
	1    5750 3000
	1    0    0    -1  
$EndComp
$Comp
L power:+5V #PWR073
U 1 1 56903211
P 5750 4000
F 0 "#PWR073" H 5750 3850 50  0001 C CNN
F 1 "+5V" H 5750 4140 50  0000 C CNN
F 2 "" H 5750 4000 50  0000 C CNN
F 3 "" H 5750 4000 50  0000 C CNN
	1    5750 4000
	1    0    0    -1  
$EndComp
$Comp
L power:+5V #PWR074
U 1 1 56903217
P 5750 5000
F 0 "#PWR074" H 5750 4850 50  0001 C CNN
F 1 "+5V" H 5750 5140 50  0000 C CNN
F 2 "" H 5750 5000 50  0000 C CNN
F 3 "" H 5750 5000 50  0000 C CNN
	1    5750 5000
	1    0    0    -1  
$EndComp
$Comp
L power:+5V #PWR075
U 1 1 5690321D
P 5750 6000
F 0 "#PWR075" H 5750 5850 50  0001 C CNN
F 1 "+5V" H 5750 6140 50  0000 C CNN
F 2 "" H 5750 6000 50  0000 C CNN
F 3 "" H 5750 6000 50  0000 C CNN
	1    5750 6000
	1    0    0    -1  
$EndComp
$Comp
L power:+5V #PWR076
U 1 1 56903223
P 7300 5000
F 0 "#PWR076" H 7300 4850 50  0001 C CNN
F 1 "+5V" H 7300 5140 50  0000 C CNN
F 2 "" H 7300 5000 50  0000 C CNN
F 3 "" H 7300 5000 50  0000 C CNN
	1    7300 5000
	1    0    0    -1  
$EndComp
$Comp
L power:+5V #PWR077
U 1 1 56903229
P 7300 4000
F 0 "#PWR077" H 7300 3850 50  0001 C CNN
F 1 "+5V" H 7300 4140 50  0000 C CNN
F 2 "" H 7300 4000 50  0000 C CNN
F 3 "" H 7300 4000 50  0000 C CNN
	1    7300 4000
	1    0    0    -1  
$EndComp
$Comp
L power:+5V #PWR078
U 1 1 5690322F
P 8800 4000
F 0 "#PWR078" H 8800 3850 50  0001 C CNN
F 1 "+5V" H 8800 4140 50  0000 C CNN
F 2 "" H 8800 4000 50  0000 C CNN
F 3 "" H 8800 4000 50  0000 C CNN
	1    8800 4000
	1    0    0    -1  
$EndComp
$Comp
L power:+5V #PWR079
U 1 1 56903235
P 8800 5000
F 0 "#PWR079" H 8800 4850 50  0001 C CNN
F 1 "+5V" H 8800 5140 50  0000 C CNN
F 2 "" H 8800 5000 50  0000 C CNN
F 3 "" H 8800 5000 50  0000 C CNN
	1    8800 5000
	1    0    0    -1  
$EndComp
$Comp
L power:+5V #PWR080
U 1 1 5690323B
P 7300 3000
F 0 "#PWR080" H 7300 2850 50  0001 C CNN
F 1 "+5V" H 7300 3140 50  0000 C CNN
F 2 "" H 7300 3000 50  0000 C CNN
F 3 "" H 7300 3000 50  0000 C CNN
	1    7300 3000
	1    0    0    -1  
$EndComp
$Comp
L power:+5V #PWR081
U 1 1 56903241
P 8800 3000
F 0 "#PWR081" H 8800 2850 50  0001 C CNN
F 1 "+5V" H 8800 3140 50  0000 C CNN
F 2 "" H 8800 3000 50  0000 C CNN
F 3 "" H 8800 3000 50  0000 C CNN
	1    8800 3000
	1    0    0    -1  
$EndComp
$Comp
L power:+5V #PWR082
U 1 1 56903247
P 8800 2000
F 0 "#PWR082" H 8800 1850 50  0001 C CNN
F 1 "+5V" H 8800 2140 50  0000 C CNN
F 2 "" H 8800 2000 50  0000 C CNN
F 3 "" H 8800 2000 50  0000 C CNN
	1    8800 2000
	1    0    0    -1  
$EndComp
$Comp
L power:+5V #PWR083
U 1 1 5690324D
P 7300 2000
F 0 "#PWR083" H 7300 1850 50  0001 C CNN
F 1 "+5V" H 7300 2140 50  0000 C CNN
F 2 "" H 7300 2000 50  0000 C CNN
F 3 "" H 7300 2000 50  0000 C CNN
	1    7300 2000
	1    0    0    -1  
$EndComp
$Comp
L power:+5V #PWR084
U 1 1 56903253
P 7300 1000
F 0 "#PWR084" H 7300 850 50  0001 C CNN
F 1 "+5V" H 7300 1140 50  0000 C CNN
F 2 "" H 7300 1000 50  0000 C CNN
F 3 "" H 7300 1000 50  0000 C CNN
	1    7300 1000
	1    0    0    -1  
$EndComp
$Comp
L power:+5V #PWR085
U 1 1 56903259
P 8800 1000
F 0 "#PWR085" H 8800 850 50  0001 C CNN
F 1 "+5V" H 8800 1140 50  0000 C CNN
F 2 "" H 8800 1000 50  0000 C CNN
F 3 "" H 8800 1000 50  0000 C CNN
	1    8800 1000
	1    0    0    -1  
$EndComp
$Comp
L power:+5V #PWR086
U 1 1 5690325F
P 5750 1000
F 0 "#PWR086" H 5750 850 50  0001 C CNN
F 1 "+5V" H 5750 1140 50  0000 C CNN
F 2 "" H 5750 1000 50  0000 C CNN
F 3 "" H 5750 1000 50  0000 C CNN
	1    5750 1000
	1    0    0    -1  
$EndComp
$Comp
L power:+5V #PWR087
U 1 1 56903265
P 4200 1000
F 0 "#PWR087" H 4200 850 50  0001 C CNN
F 1 "+5V" H 4200 1140 50  0000 C CNN
F 2 "" H 4200 1000 50  0000 C CNN
F 3 "" H 4200 1000 50  0000 C CNN
	1    4200 1000
	1    0    0    -1  
$EndComp
$Comp
L power:+5V #PWR088
U 1 1 5690326B
P 4200 2000
F 0 "#PWR088" H 4200 1850 50  0001 C CNN
F 1 "+5V" H 4200 2140 50  0000 C CNN
F 2 "" H 4200 2000 50  0000 C CNN
F 3 "" H 4200 2000 50  0000 C CNN
	1    4200 2000
	1    0    0    -1  
$EndComp
$Comp
L power:+5V #PWR089
U 1 1 56903271
P 5750 2000
F 0 "#PWR089" H 5750 1850 50  0001 C CNN
F 1 "+5V" H 5750 2140 50  0000 C CNN
F 2 "" H 5750 2000 50  0000 C CNN
F 3 "" H 5750 2000 50  0000 C CNN
	1    5750 2000
	1    0    0    -1  
$EndComp
$Comp
L esp-ring-rescue:WS2812B-RESCUE-ring-esp-ring-rescue-esp-ring-rescue-esp-ring-rescue L9
U 1 1 56902CC1
P 7900 2200
F 0 "L9" H 7900 2200 60  0000 C CNN
F 1 "WS2812B" H 7900 2500 60  0000 C CNN
F 2 "NeoPixel:WS2812B" H 7900 2200 60  0001 C CNN
F 3 "" H 7900 2200 60  0000 C CNN
	1    7900 2200
	1    0    0    -1  
$EndComp
Text GLabel 10100 6550 2    39   Input ~ 0
OUT_30Pixel
Text GLabel 1550 1250 0    39   Input ~ 0
IN_30Pixel
Text Notes 3650 650  2    79   ~ 0
FIRST PIXEL
Text Notes 10400 6700 2    79   ~ 0
LAST PIXEL
NoConn ~ 3450 3550
$Comp
L esp-ring-rescue:74LVC1G08SE-esp-ring-rescue-esp-ring-rescue-esp-ring-rescue U1
U 1 1 5933F3D8
P 2150 1250
F 0 "U1" H 1915 1505 50  0000 C CNN
F 1 "74LVC1G08SE" H 2110 1250 39  0000 C CNN
F 2 "TO_SOT_Packages_SMD:SOT-353_SC-70-5_Handsoldering" H 2150 1250 50  0001 C CNN
F 3 "" H 2150 1250 50  0000 C CNN
	1    2150 1250
	1    0    0    -1  
$EndComp
$Comp
L power:GND #PWR094
U 1 1 593431A5
P 2150 1650
F 0 "#PWR094" H 2150 1400 50  0001 C CNN
F 1 "GND" H 2150 1500 50  0000 C CNN
F 2 "" H 2150 1650 50  0000 C CNN
F 3 "" H 2150 1650 50  0000 C CNN
	1    2150 1650
	1    0    0    -1  
$EndComp
$Comp
L esp-ring-rescue:C-esp-ring-rescue-esp-ring-rescue-esp-ring-rescue C1
U 1 1 59348387
P 2700 1200
F 0 "C1" H 2725 1300 50  0000 L CNN
F 1 "104" H 2725 1100 50  0000 L CNN
F 2 "Capacitors_SMD:C_0805_HandSoldering" H 2738 1050 50  0001 C CNN
F 3 "" H 2700 1200 50  0000 C CNN
	1    2700 1200
	1    0    0    -1  
$EndComp
$Comp
L esp-ring-rescue:SSD1306-esp-ring-rescue-esp-ring-rescue-esp-ring-rescue U3
U 1 1 5936A56C
P 12950 1550
F 0 "U3" H 12950 1250 60  0000 C CNN
F 1 "SSD1306" H 12950 1150 60  0000 C CNN
F 2 "kicadlib:ssd1306" H 12950 1550 60  0001 C CNN
F 3 "" H 12950 1550 60  0000 C CNN
	1    12950 1550
	1    0    0    1   
$EndComp
$Comp
L esp-ring-rescue:SW_PUSH-esp-ring-rescue-esp-ring-rescue-esp-ring-rescue SW4
U 1 1 5936E6F3
P 12350 5700
F 0 "SW4" H 12350 5850 50  0000 C CNN
F 1 "SW_PUSH" H 12350 5600 50  0000 C CNN
F 2 "Button_Switch_THT:SW_PUSH_6mm" H 12350 5700 50  0001 C CNN
F 3 "" H 12350 5700 50  0000 C CNN
	1    12350 5700
	-1   0    0    -1  
$EndComp
$Comp
L esp-ring-rescue:23LCV1024-esp-ring-rescue-esp-ring-rescue-esp-ring-rescue U4
U 1 1 5936F180
P 13750 4800
F 0 "U4" H 13775 4263 60  0000 C CNN
F 1 "23LCV1024" H 13775 4369 60  0000 C CNN
F 2 "Housings_SOIC:SOIC-8_3.9x4.9mm_Pitch1.27mm" H 13650 4500 60  0001 C CNN
F 3 "" H 13650 4500 60  0000 C CNN
	1    13750 4800
	-1   0    0    1   
$EndComp
$Comp
L power:+3V3 #PWR0100
U 1 1 59375A89
P 13050 5000
F 0 "#PWR0100" H 13050 4850 50  0001 C CNN
F 1 "+3V3" H 13065 5173 50  0000 C CNN
F 2 "" H 13050 5000 50  0000 C CNN
F 3 "" H 13050 5000 50  0000 C CNN
	1    13050 5000
	1    0    0    -1  
$EndComp
Wire Wire Line
	13050 5000 13250 5000
Connection ~ 13250 5000
Wire Wire Line
	14250 4700 14200 4700
Wire Wire Line
	14250 5150 14250 4700
Wire Wire Line
	13250 5150 14250 5150
Wire Wire Line
	13250 4850 13250 5000
Wire Wire Line
	3950 1550 3950 750 
Wire Wire Line
	3950 750  5250 750 
Wire Wire Line
	5250 750  5250 1000
Wire Wire Line
	4350 1400 4350 1550
Wire Wire Line
	4350 1550 5500 1550
Wire Wire Line
	5500 1550 5500 750 
Wire Wire Line
	5500 750  6800 750 
Wire Wire Line
	6800 750  6800 1000
Wire Wire Line
	5900 1400 5900 1550
Wire Wire Line
	5900 1550 7050 1550
Wire Wire Line
	7050 1550 7050 750 
Wire Wire Line
	7050 750  8350 750 
Wire Wire Line
	8350 750  8350 1000
Wire Wire Line
	7450 1400 7450 1550
Wire Wire Line
	7450 1550 8600 1550
Wire Wire Line
	8600 1550 8600 750 
Wire Wire Line
	8600 750  9850 750 
Wire Wire Line
	9850 750  9850 1000
Wire Wire Line
	8950 1400 8950 1650
Wire Wire Line
	8950 1650 3700 1650
Wire Wire Line
	3700 1650 3700 2000
Wire Wire Line
	2800 2400 2800 2550
Wire Wire Line
	2800 2550 3950 2550
Wire Wire Line
	3950 2550 3950 1750
Wire Wire Line
	3950 1750 5250 1750
Wire Wire Line
	5250 1750 5250 2000
Wire Wire Line
	4350 2400 4350 2550
Wire Wire Line
	4350 2550 5500 2550
Wire Wire Line
	5500 2550 5500 1750
Wire Wire Line
	5500 1750 6800 1750
Wire Wire Line
	6800 1750 6800 2000
Wire Wire Line
	5900 2400 5900 2550
Wire Wire Line
	5900 2550 7050 2550
Wire Wire Line
	7050 2550 7050 1750
Wire Wire Line
	7050 1750 8350 1750
Wire Wire Line
	8350 1750 8350 2000
Wire Wire Line
	7450 2400 7450 2550
Wire Wire Line
	7450 2550 8600 2550
Wire Wire Line
	8600 2550 8600 1750
Wire Wire Line
	8600 1750 9850 1750
Wire Wire Line
	9850 1750 9850 2000
Wire Wire Line
	8950 2400 8950 2650
Wire Wire Line
	8950 2650 3700 2650
Wire Wire Line
	3700 2650 3700 3000
Wire Wire Line
	2800 3400 2800 3550
Wire Wire Line
	2800 3550 3950 3550
Wire Wire Line
	3950 3550 3950 2750
Wire Wire Line
	3950 2750 5250 2750
Wire Wire Line
	5250 2750 5250 3000
Wire Wire Line
	4350 3400 4350 3550
Wire Wire Line
	4350 3550 5500 3550
Wire Wire Line
	5500 3550 5500 2750
Wire Wire Line
	5500 2750 6800 2750
Wire Wire Line
	6800 2750 6800 3000
Wire Wire Line
	5900 3400 5900 3550
Wire Wire Line
	5900 3550 7050 3550
Wire Wire Line
	7050 3550 7050 2750
Wire Wire Line
	7050 2750 8350 2750
Wire Wire Line
	8350 2750 8350 3000
Wire Wire Line
	7450 3400 7450 3550
Wire Wire Line
	7450 3550 8600 3550
Wire Wire Line
	8600 3550 8600 2750
Wire Wire Line
	8600 2750 9850 2750
Wire Wire Line
	9850 2750 9850 3000
Wire Wire Line
	8950 3400 8950 3650
Wire Wire Line
	8950 3650 3700 3650
Wire Wire Line
	3700 3650 3700 4000
Wire Wire Line
	2800 4400 2800 4550
Wire Wire Line
	2800 4550 3950 4550
Wire Wire Line
	3950 4550 3950 3750
Wire Wire Line
	3950 3750 5250 3750
Wire Wire Line
	5250 3750 5250 4000
Wire Wire Line
	4350 4400 4350 4550
Wire Wire Line
	4350 4550 5500 4550
Wire Wire Line
	5500 4550 5500 3750
Wire Wire Line
	5500 3750 6800 3750
Wire Wire Line
	6800 3750 6800 4000
Wire Wire Line
	5900 4400 5900 4550
Wire Wire Line
	5900 4550 7050 4550
Wire Wire Line
	7050 4550 7050 3750
Wire Wire Line
	7050 3750 8350 3750
Wire Wire Line
	8350 3750 8350 4000
Wire Wire Line
	7450 4400 7450 4550
Wire Wire Line
	7450 4550 8600 4550
Wire Wire Line
	8600 4550 8600 3750
Wire Wire Line
	8600 3750 9850 3750
Wire Wire Line
	9850 3750 9850 4000
Wire Wire Line
	8950 4400 8950 4650
Wire Wire Line
	8950 4650 3700 4650
Wire Wire Line
	3700 4650 3700 5000
Wire Wire Line
	2800 5400 2800 5550
Wire Wire Line
	2800 5550 3950 5550
Wire Wire Line
	3950 5550 3950 4750
Wire Wire Line
	3950 4750 5250 4750
Wire Wire Line
	5250 4750 5250 5000
Wire Wire Line
	4350 5400 4350 5550
Wire Wire Line
	4350 5550 5500 5550
Wire Wire Line
	5500 5550 5500 4750
Wire Wire Line
	5500 4750 6800 4750
Wire Wire Line
	6800 4750 6800 5000
Wire Wire Line
	5900 5400 5900 5550
Wire Wire Line
	5900 5550 7050 5550
Wire Wire Line
	7050 5550 7050 4750
Wire Wire Line
	7050 4750 8350 4750
Wire Wire Line
	8350 4750 8350 5000
Wire Wire Line
	7450 5400 7450 5550
Wire Wire Line
	7450 5550 8600 5550
Wire Wire Line
	8600 5550 8600 4750
Wire Wire Line
	8600 4750 9850 4750
Wire Wire Line
	9850 4750 9850 5000
Wire Wire Line
	8950 5400 8950 5650
Wire Wire Line
	8950 5650 3700 5650
Wire Wire Line
	3700 5650 3700 5950
Wire Wire Line
	2800 6350 2800 6500
Wire Wire Line
	2800 6500 3950 6500
Wire Wire Line
	3950 6500 3950 5750
Wire Wire Line
	3950 5750 5250 5750
Wire Wire Line
	5250 5750 5250 6000
Wire Wire Line
	4350 6400 4350 6550
Wire Wire Line
	4350 6550 5500 6550
Wire Wire Line
	5500 6550 5500 5750
Wire Wire Line
	5500 5750 6800 5750
Wire Wire Line
	6800 5750 6800 6000
Wire Wire Line
	5900 6400 5900 6550
Wire Wire Line
	8350 5750 8350 6000
Wire Wire Line
	7450 6400 7450 6550
Wire Wire Line
	7450 6550 8600 6550
Wire Wire Line
	8600 6550 8600 5750
Wire Wire Line
	8600 5750 9850 5750
Wire Wire Line
	9850 5750 9850 6000
Wire Wire Line
	4200 1000 4350 1000
Wire Wire Line
	5750 1000 5900 1000
Wire Wire Line
	7300 1000 7450 1000
Wire Wire Line
	2650 2000 2800 2000
Wire Wire Line
	4200 2000 4350 2000
Wire Wire Line
	5750 2000 5900 2000
Wire Wire Line
	7300 2000 7450 2000
Wire Wire Line
	2650 3000 2800 3000
Wire Wire Line
	4200 3000 4350 3000
Wire Wire Line
	5750 3000 5900 3000
Wire Wire Line
	7300 3000 7450 3000
Wire Wire Line
	2650 4000 2800 4000
Wire Wire Line
	4200 4000 4350 4000
Wire Wire Line
	5750 4000 5900 4000
Wire Wire Line
	7300 4000 7450 4000
Wire Wire Line
	7300 5000 7450 5000
Wire Wire Line
	5750 5000 5900 5000
Wire Wire Line
	4200 5000 4350 5000
Wire Wire Line
	2650 5000 2800 5000
Wire Wire Line
	8800 1000 8950 1000
Wire Wire Line
	8800 2000 8950 2000
Wire Wire Line
	8800 3000 8950 3000
Wire Wire Line
	8800 4000 8950 4000
Wire Wire Line
	8800 5000 8950 5000
Wire Wire Line
	5750 6000 5900 6000
Wire Wire Line
	4200 6000 4350 6000
Wire Wire Line
	8800 6000 8950 6000
Wire Wire Line
	7300 6000 7450 6000
Wire Wire Line
	2650 5950 2800 5950
Connection ~ 7300 5000
Connection ~ 7300 6000
Connection ~ 2650 5950
Connection ~ 4200 6000
Connection ~ 8800 6000
Connection ~ 5750 6000
Connection ~ 4200 5000
Connection ~ 4200 4000
Connection ~ 2650 4000
Connection ~ 2650 5000
Connection ~ 5750 5000
Connection ~ 5750 4000
Connection ~ 7300 4000
Connection ~ 8800 5000
Connection ~ 8800 4000
Connection ~ 8800 3000
Connection ~ 7300 3000
Connection ~ 7300 2000
Connection ~ 8800 2000
Connection ~ 5750 2000
Connection ~ 5750 3000
Connection ~ 4200 3000
Connection ~ 4200 2000
Connection ~ 4200 1000
Connection ~ 2650 2000
Connection ~ 2650 3000
Connection ~ 5750 1000
Connection ~ 7300 1000
Connection ~ 8800 1000
Wire Wire Line
	8950 6400 8950 6550
Wire Wire Line
	8950 6550 10100 6550
Wire Wire Line
	2550 750  3150 750 
Wire Wire Line
	3450 750  3700 750 
Wire Wire Line
	3700 750  3700 1000
Wire Wire Line
	5900 6550 7050 6550
Wire Wire Line
	7050 6550 7050 5750
Wire Wire Line
	7050 5750 8350 5750
Wire Wire Line
	2150 950  2700 950 
Wire Wire Line
	2700 950  2700 1000
Wire Wire Line
	2700 1000 2800 1000
Wire Wire Line
	1750 1150 1750 1250
Wire Wire Line
	2550 1250 2550 750 
Wire Wire Line
	1550 1250 1750 1250
Connection ~ 1750 1250
Wire Wire Line
	3950 1550 2800 1550
Wire Wire Line
	2800 1550 2800 1400
Wire Wire Line
	2150 1550 2150 1650
Connection ~ 2700 1000
Wire Wire Line
	2700 1350 2700 1550
Wire Wire Line
	2700 1550 2150 1550
Wire Wire Line
	13250 5000 13250 5150
Wire Wire Line
	1750 1250 1750 1350
Wire Wire Line
	2700 1000 2700 1050
$Comp
L RF:SIM800C U6
U 1 1 5CA8A879
P 11850 3150
F 0 "U6" H 11850 3250 50  0000 C CNN
F 1 "SIM800C" H 11850 3150 50  0000 C CNN
F 2 "RF_Module:SIMCom_SIM800C" H 12450 2100 50  0001 C CNN
F 3 "http://simcom.ee/documents/SIM800C/SIM800C_Hardware_Design_V1.05.pdf" H 7200 800 50  0001 C CNN
	1    11850 3150
	1    0    0    -1  
$EndComp
$Comp
L esp-ring-rescue:SW_PUSH-esp-ring-rescue-esp-ring-rescue-esp-ring-rescue SW3
U 1 1 5936E62E
P 12350 5300
F 0 "SW3" H 12350 5450 50  0000 C CNN
F 1 "SW_PUSH" H 12350 5200 50  0000 C CNN
F 2 "Button_Switch_THT:SW_PUSH_6mm" H 12350 5300 50  0001 C CNN
F 3 "" H 12350 5300 50  0000 C CNN
	1    12350 5300
	-1   0    0    -1  
$EndComp
$Comp
L esp-ring-rescue:SW_PUSH-esp-ring-rescue-esp-ring-rescue-esp-ring-rescue SW2
U 1 1 5936E573
P 12350 4900
F 0 "SW2" H 12350 5050 50  0000 C CNN
F 1 "SW_PUSH" H 12350 4800 50  0000 C CNN
F 2 "Button_Switch_THT:SW_PUSH_6mm" H 12350 4900 50  0001 C CNN
F 3 "" H 12350 4900 50  0000 C CNN
	1    12350 4900
	-1   0    0    -1  
$EndComp
$Comp
L esp-ring-rescue:SW_PUSH-esp-ring-rescue-esp-ring-rescue-esp-ring-rescue SW1
U 1 1 5936E39A
P 12350 4500
F 0 "SW1" H 12350 4650 50  0000 C CNN
F 1 "SW_PUSH" H 12350 4400 50  0000 C CNN
F 2 "Button_Switch_THT:SW_PUSH_6mm" H 12350 4500 50  0001 C CNN
F 3 "" H 12350 4500 50  0000 C CNN
	1    12350 4500
	-1   0    0    -1  
$EndComp
$Comp
L RF_Module:ESP-12F U2
U 1 1 5CC0D08F
P 14000 3600
F 0 "U2" H 14000 4578 50  0000 C CNN
F 1 "ESP-12F" H 14000 4487 50  0000 C CNN
F 2 "RF_Module:ESP-12E" H 14000 3600 50  0001 C CNN
F 3 "http://wiki.ai-thinker.com/_media/esp8266/esp8266_series_modules_user_manual_v1.1.pdf" H 13650 3700 50  0001 C CNN
	1    14000 3600
	1    0    0    -1  
$EndComp
$Comp
L Device:Antenna_Loop AE1
U 1 1 5CC84825
P 14300 1950
F 0 "AE1" H 14530 1966 50  0000 L CNN
F 1 "Bluetooth" H 14530 1875 50  0000 L CNN
F 2 "RF_Antenna:Texas_SWRA117D_2.4GHz_Right" H 14300 1950 50  0001 C CNN
F 3 "~" H 14300 1950 50  0001 C CNN
	1    14300 1950
	1    0    0    -1  
$EndComp
$Comp
L Connector:SIM_Card J1
U 1 1 5CC858C6
P 15450 3950
F 0 "J1" H 16079 4050 50  0000 L CNN
F 1 "SIM_Card" H 16079 3959 50  0000 L CNN
F 2 "Connectors:microSIM_JAE_SF53S006VCBR2000" H 15450 4300 50  0001 C CNN
F 3 " ~" H 15400 3950 50  0001 C CNN
	1    15450 3950
	1    0    0    -1  
$EndComp
$Comp
L Device:Antenna_Loop AE2
U 1 1 5CA86745
P 13400 1950
F 0 "AE2" H 13630 1966 50  0000 L CNN
F 1 "GSM" H 13630 1875 50  0000 L CNN
F 2 "RF_Antenna:Texas_SWRA117D_2.4GHz_Left" H 13400 1950 50  0001 C CNN
F 3 "~" H 13400 1950 50  0001 C CNN
	1    13400 1950
	1    0    0    -1  
$EndComp
Wire Wire Line
	12650 2250 13400 2250
Wire Wire Line
	13400 2250 13400 2150
Wire Wire Line
	12650 2350 14300 2350
Wire Wire Line
	14300 2350 14300 2150
$Comp
L esp-ring-rescue:TEA5767-tea5767-esp-ring-rescue-esp-ring-rescue U5
U 1 1 5CA864B2
P 12500 7700
F 0 "U5" H 12550 8197 60  0000 C CNN
F 1 "TEA5767" H 12550 8091 60  0000 C CNN
F 2 "tea5767:TEA5767_SMD" H 12650 7700 60  0001 C CNN
F 3 "" H 12650 7700 60  0000 C CNN
	1    12500 7700
	1    0    0    -1  
$EndComp
$Comp
L power:GND #PWR0101
U 1 1 5CABF4F0
P 13500 2200
F 0 "#PWR0101" H 13500 1950 50  0001 C CNN
F 1 "GND" H 13600 2200 50  0000 C CNN
F 2 "" H 13500 2200 50  0001 C CNN
F 3 "" H 13500 2200 50  0001 C CNN
	1    13500 2200
	1    0    0    -1  
$EndComp
Wire Wire Line
	13500 2200 13500 2150
$Comp
L power:GND #PWR0102
U 1 1 5CAC96AD
P 14400 2200
F 0 "#PWR0102" H 14400 1950 50  0001 C CNN
F 1 "GND" H 14500 2200 50  0000 C CNN
F 2 "" H 14400 2200 50  0001 C CNN
F 3 "" H 14400 2200 50  0001 C CNN
	1    14400 2200
	1    0    0    -1  
$EndComp
Wire Wire Line
	14400 2200 14400 2150
$Comp
L power:GND #PWR0103
U 1 1 5CADE52A
P 11850 4500
F 0 "#PWR0103" H 11850 4250 50  0001 C CNN
F 1 "GND" H 11855 4327 50  0000 C CNN
F 2 "" H 11850 4500 50  0001 C CNN
F 3 "" H 11850 4500 50  0001 C CNN
	1    11850 4500
	1    0    0    -1  
$EndComp
Wire Wire Line
	11850 4250 11850 4500
$Comp
L Sensor_Motion:MPU-9250 U7
U 1 1 5CAD5665
P 18000 3050
F 0 "U7" H 18000 2064 50  0000 C CNN
F 1 "MPU-9250" H 18000 1973 50  0000 C CNN
F 2 "Sensor_Motion:InvenSense_QFN-24_3x3mm_P0.4mm" H 18000 2050 50  0001 C CNN
F 3 "https://store.invensense.com/datasheets/invensense/MPU9250REV1.0.pdf" H 18000 2900 50  0001 C CNN
	1    18000 3050
	1    0    0    -1  
$EndComp
$EndSCHEMATC
